"","Nkill","Maximum_at_a_day"
"1","0",69
"2","0.07",12
"3","0.08",2
"4","0.14",9
"5","0.15",4
"6","0.16",4
"7","0.17",8
"8","0.199999928",25
"9","0.2",15
"10","0.25",4
"11","0.3",2
"12","0.33",4
"13","0.34",2
"14","0.37",4
"15","0.38",4
"16","0.4",5
"17","0.41",4
"18","0.42",8
"19","0.43",6
"20","0.45",6
"21","0.46",5
"22","0.5",6
"23","0.66",2
"24","0.666666667",3
"25","0.67",4
"26","0.75",8
"27","0.8",5
"28","0.85",2
"29","0.86",5
"30","1",26
"31","1.16",5
"32","1.17",6
"33","1.18",11
"34","1.2",1
"35","1.25",4
"36","1.3",2
"37","1.33",2
"38","1.34",1
"39","1.4",1
"40","1.46",11
"41","1.47",2
"42","1.5",6
"43","1.6",5
"44","1.66",1
"45","1.666666667",6
"46","1.67",2
"47","1.75",4
"48","2",15
"49","2.16",2
"50","2.17",4
"51","2.2",5
"52","2.28",3
"53","2.29",4
"54","2.33",2
"55","2.34",1
"56","2.5",6
"57","2.66",1
"58","2.67",2
"59","2.83",12
"60","2.84",5
"61","3",12
"62","3.2",5
"63","3.25",4
"64","3.33",2
"65","3.34",1
"66","3.4",5
"67","3.5",4
"68","3.66",1
"69","3.67",2
"70","3.7",10
"71","3.75",12
"72","4",9
"73","4.33",4
"74","4.34",2
"75","4.4",1
"76","4.5",2
"77","4.75",4
"78","5",13
"79","5.33",2
"80","5.34",1
"81","5.5",4
"82","5.6",5
"83","5.66",1
"84","5.67",2
"85","5.75",4
"86","5.83",4
"87","5.84",2
"88","6",14
"89","6.2",5
"90","6.3",10
"91","6.33",2
"92","6.34",1
"93","6.5",4
"94","6.75",1
"95","7",5
"96","7.33",2
"97","7.34",1
"98","7.4",2
"99","7.5",6
"100","8",5
"101","8.2",5
"102","8.25",4
"103","8.33",2
"104","8.333333333",3
"105","8.34",1
"106","8.5",2
"107","8.666666666",3
"108","9",5
"109","9.33",2
"110","9.34",1
"111","9.4",1
"112","9.5",2
"113","10",9
"114","10.2",5
"115","10.5",3
"116","10.625",8
"117","11",4
"118","11.33",2
"119","11.34",1
"120","11.5",2
"121","12",7
"122","12.5",4
"123","13",4
"124","13.33",2
"125","13.34",1
"126","13.5",2
"127","14",3
"128","14.25",2
"129","14.3",2
"130","14.4",1
"131","14.5",2
"132","15",10
"133","15.5",2
"134","16",4
"135","16.66",2
"136","16.67",4
"137","16.91",9
"138","17",2
"139","17.5",2
"140","17.9",1
"141","17.91",1
"142","18",8
"143","18.33",2
"144","18.34",1
"145","19",3
"146","19.5",2
"147","19.8",16
"148","20",4
"149","20.33",2
"150","20.34",1
"151","20.83",4
"152","20.84",2
"153","21",2
"154","22",2
"155","23",2
"156","23.33",2
"157","23.34",1
"158","23.5",2
"159","24",2
"160","25",5
"161","26",3
"162","26.3",2
"163","26.4",1
"164","26.5",2
"165","27",2
"166","28",2
"167","29",3
"168","30",3
"169","30.5",2
"170","31",1
"171","32",3
"172","32.5",2
"173","33",1
"174","33.33",2
"175","33.34",1
"176","34",1
"177","35",2
"178","36",1
"179","37",1
"180","38",1
"181","39",2
"182","40",7
"183","40.33",2
"184","40.34",1
"185","41",2
"186","42",2
"187","43",1
"188","44",1
"189","45",2
"190","46",1
"191","47",2
"192","48",2
"193","49",1
"194","50",4
"195","51",1
"196","52",1
"197","53",1
"198","53.5",2
"199","54",2
"200","55",1
"201","56",1
"202","57",2
"203","58",1
"204","59",2
"205","60",1
"206","61",1
"207","61.66",1
"208","61.67",2
"209","62",2
"210","63",2
"211","64",1
"212","65",1
"213","66",1
"214","67",1
"215","68",1
"216","69",1
"217","70",1
"218","71",1
"219","72",1
"220","73",1
"221","74",2
"222","75",1
"223","76",2
"224","77",1
"225","78",1
"226","78.33333333",6
"227","79",1
"228","80",1
"229","81",1
"230","82",1
"231","83",1
"232","84",1
"233","85",1
"234","86",1
"235","87",1
"236","88",1
"237","89",1
"238","90",2
"239","91",1
"240","92",1
"241","93",1
"242","94",1
"243","95",1
"244","96",1
"245","97",1
"246","98",1
"247","100",4
"248","101",2
"249","102",1
"250","103",1
"251","104",1
"252","105",1
"253","106",1
"254","107",1
"255","108",1
"256","109",1
"257","110",1
"258","111",1
"259","112",1
"260","114",1
"261","115",1
"262","116",1
"263","117",1
"264","118",1
"265","119",1
"266","120",1
"267","121",1
"268","122",1
"269","123",1
"270","124",1
"271","126",1
"272","127",1
"273","129",1
"274","130",1
"275","132",1
"276","134",1
"277","135",1
"278","136",1
"279","140",1
"280","141",1
"281","142",1
"282","143",1
"283","144",1
"284","145",2
"285","146",1
"286","150",1
"287","151",1
"288","152",1
"289","153",1
"290","157",1
"291","160",1
"292","165",1
"293","168",1
"294","170",1
"295","171",1
"296","174",1
"297","180",1
"298","184",1
"299","188",1
"300","189",1
"301","200",1
"302","201",1
"303","202",1
"304","206",2
"305","210",1
"306","212",1
"307","224",1
"308","227",1
"309","228",1
"310","230",1
"311","240",1
"312","241",1
"313","250",2
"314","256",1
"315","259",1
"316","270",1
"317","271",1
"318","275",1
"319","280",1
"320","287",1
"321","298",1
"322","300",1
"323","304",1
"324","310",1
"325","315",1
"326","320",1
"327","329",1
"328","344",1
"329","375",1
"330","388",1
"331","400",1
"332","422",1
"333","500",1
"334","517",1
"335","518",1
"336","670",1
"337","970",1
"338","1180",1
"339","1381.5",2
"340","1500",1
"341","<NA>",49
